\relax 
\providecommand\hyper@newdestlabel[2]{}
\providecommand\HyperFirstAtBeginDocument{\AtBeginDocument}
\HyperFirstAtBeginDocument{\ifx\hyper@anchor\@undefined
\global\let\oldcontentsline\contentsline
\gdef\contentsline#1#2#3#4{\oldcontentsline{#1}{#2}{#3}}
\global\let\oldnewlabel\newlabel
\gdef\newlabel#1#2{\newlabelxx{#1}#2}
\gdef\newlabelxx#1#2#3#4#5#6{\oldnewlabel{#1}{{#2}{#3}}}
\AtEndDocument{\ifx\hyper@anchor\@undefined
\let\contentsline\oldcontentsline
\let\newlabel\oldnewlabel
\fi}
\fi}
\global\let\hyper@last\relax 
\gdef\HyperFirstAtBeginDocument#1{#1}
\providecommand\HyField@AuxAddToFields[1]{}
\providecommand\HyField@AuxAddToCoFields[2]{}
\select@language{english}
\@writefile{toc}{\select@language{english}}
\@writefile{lof}{\select@language{english}}
\@writefile{lot}{\select@language{english}}
\@writefile{toc}{\contentsline {section}{\numberline {1}Variation of Parameter}{1}{section.1}}
\newlabel{sec:Variation of Parameter}{{1}{1}{Variation of Parameter}{section.1}{}}
\newlabel{sec:Variation of Parameter@cref}{{[section][1][]1}{1}}
\@writefile{loe}{\contentsline {prop}{\numberline {1.1}Proposition}{2}{prop.1.1}}
\@writefile{toc}{\contentsline {subsection}{\numberline {1.1}application: force on a spring}{2}{subsection.1.1}}
\newlabel{sub:application: force on a spring}{{1.1}{2}{application: force on a spring}{subsection.1.1}{}}
\newlabel{sub:application: force on a spring@cref}{{[subsection][1][1]1.1}{2}}
\@writefile{loe}{\contentsline {rem}{\numberline {1.1}Remark}{4}{rem.1.1}}
\@writefile{loe}{\contentsline {exmp}{\numberline {1.1}Example}{4}{exmp.1.1}}
\@writefile{toc}{\contentsline {subsection}{\numberline {1.2}Applications:Forced Systems}{5}{subsection.1.2}}
\newlabel{sub:Applications:Forced Systems}{{1.2}{5}{Applications:Forced Systems}{subsection.1.2}{}}
\newlabel{sub:Applications:Forced Systems@cref}{{[subsection][2][1]1.2}{5}}
\@writefile{loe}{\contentsline {exmp}{\numberline {1.2}Example}{5}{exmp.1.2}}
