\select@language {english}
\contentsline {section}{\numberline {1}Variation of Parameter}{1}{section.1}
\contentsline {subsection}{\numberline {1.1}application: force on a spring}{2}{subsection.1.1}
\contentsline {subsection}{\numberline {1.2}Applications:Forced Systems}{5}{subsection.1.2}
